module github.com/wabarc/wayback

// +heroku goVersion go1.17

go 1.17

require (
	github.com/bwmarrin/discordgo v0.23.3-0.20210627161652-421e14965030
	github.com/cenkalti/backoff/v4 v4.1.2
	github.com/cretz/bine v0.2.0
	github.com/davecgh/go-spew v1.1.1
	github.com/dghubble/go-twitter v0.0.0-20201011215211-4b180d0cc78d
	github.com/dghubble/oauth1 v0.7.1
	github.com/dustin/go-humanize v1.0.0
	github.com/fatih/color v1.13.0
	github.com/gabriel-vasile/mimetype v1.4.0
	github.com/go-shiori/go-readability v0.0.0-20220215145315-dd6828d2f09b
	github.com/google/go-github/v40 v40.0.0
	github.com/gorilla/mux v1.8.0
	github.com/gorilla/websocket v1.5.0
	github.com/iawia002/lux v0.14.0
	github.com/mattn/go-mastodon v0.0.5-0.20210515144304-86627ec7d635
	github.com/phf/go-queue v0.0.0-20170504031614-9abe38d0371d
	github.com/pkg/errors v0.9.1
	github.com/prometheus/client_golang v1.12.1
	github.com/prometheus/common v0.32.1
	github.com/slack-go/slack v0.10.2
	github.com/spf13/cobra v1.4.0
	github.com/thoj/go-ircevent v0.0.0-20190807115034-8e7ce4b5a1eb
	github.com/wabarc/archive.is v1.3.0
	github.com/wabarc/archive.org v1.2.1-0.20210708220121-cb9b83ff9896
	github.com/wabarc/go-anonfile v0.1.0
	github.com/wabarc/go-catbox v0.1.0
	github.com/wabarc/helper v0.0.0-20220320101038-dbb2ea36249b
	github.com/wabarc/ipfs-pinner v1.1.1-0.20220126131044-16299c0dd43d
	github.com/wabarc/logger v0.0.0-20210730133522-86bd3f31e792
	github.com/wabarc/playback v0.0.0-20210718054702-cab6c6004933
	github.com/wabarc/rivet v0.0.0-20220207154318-37fc56bcf4e1
	github.com/wabarc/screenshot v1.5.1-0.20220318140348-632a135d50db
	github.com/wabarc/telegra.ph v0.0.0-20220304132636-fce723bd6eae
	github.com/wabarc/warcraft v0.2.2-0.20211107142816-7beea5a75ab5
	go.etcd.io/bbolt v1.3.6
	golang.org/x/crypto v0.0.0-20220315160706-3147a52a75dd // indirect
	golang.org/x/net v0.0.0-20220225172249-27dd8689420f
	golang.org/x/sync v0.0.0-20210220032951-036812b2e83c
	gopkg.in/telebot.v3 v3.0.0-20220130115853-f0291132d3c3
	maunium.net/go/mautrix v0.10.12
)

require (
	github.com/MercuryEngineering/CookieMonster v0.0.0-20180304172713-1584578b3403 // indirect
	github.com/PuerkitoBio/goquery v1.8.0 // indirect
	github.com/VividCortex/ewma v1.2.0 // indirect
	github.com/andybalholm/cascadia v1.3.1 // indirect
	github.com/beorn7/perks v1.0.1 // indirect
	github.com/bitly/go-simplejson v0.5.0 // indirect
	github.com/btcsuite/btcd v0.22.0-beta // indirect
	github.com/cenkalti/backoff v2.2.1+incompatible // indirect
	github.com/cespare/xxhash/v2 v2.1.2 // indirect
	github.com/cheggaaa/pb/v3 v3.0.8 // indirect
	github.com/chromedp/cdproto v0.0.0-20220217222649-d8c14a5c6edf // indirect
	github.com/chromedp/chromedp v0.7.8 // indirect
	github.com/chromedp/sysutil v1.0.0 // indirect
	github.com/crackcomm/go-gitignore v0.0.0-20170627025303-887ab5e44cc3 // indirect
	github.com/dghubble/sling v1.3.0 // indirect
	github.com/dlclark/regexp2 v1.4.1-0.20201116162257-a2a8dda75c91 // indirect
	github.com/dop251/goja v0.0.0-20211211112501-fb27c91c26ed // indirect
	github.com/go-shiori/dom v0.0.0-20210627111528-4e4722cd0d65 // indirect
	github.com/go-shiori/obelisk v0.0.0-20220220092206-60b3a6b76c5e // indirect
	github.com/go-sourcemap/sourcemap v2.1.3+incompatible // indirect
	github.com/gobwas/httphead v0.1.0 // indirect
	github.com/gobwas/pool v0.2.1 // indirect
	github.com/gobwas/ws v1.1.0 // indirect
	github.com/gogo/protobuf v1.3.2 // indirect
	github.com/gogs/chardet v0.0.0-20211120154057-b7413eaefb8f // indirect
	github.com/golang/protobuf v1.5.2 // indirect
	github.com/google/go-querystring v1.1.0 // indirect
	github.com/google/uuid v1.3.0 // indirect
	github.com/inconshreveable/mousetrap v1.0.0 // indirect
	github.com/ipfs/go-cid v0.1.0 // indirect
	github.com/ipfs/go-ipfs-api v0.3.0 // indirect
	github.com/ipfs/go-ipfs-files v0.1.1 // indirect
	github.com/itchyny/gojq v0.12.7 // indirect
	github.com/itchyny/timefmt-go v0.1.3 // indirect
	github.com/josharian/intern v1.0.0 // indirect
	github.com/json-iterator/go v1.1.12 // indirect
	github.com/kallydev/telegraph-go v1.0.0 // indirect
	github.com/kennygrant/sanitize v1.2.4 // indirect
	github.com/kkdai/youtube/v2 v2.7.10 // indirect
	github.com/klauspost/cpuid/v2 v2.0.9 // indirect
	github.com/kr/pretty v0.3.0 // indirect
	github.com/kr/text v0.2.0 // indirect
	github.com/libp2p/go-buffer-pool v0.0.2 // indirect
	github.com/libp2p/go-flow-metrics v0.0.3 // indirect
	github.com/libp2p/go-libp2p-core v0.13.0 // indirect
	github.com/libp2p/go-openssl v0.0.7 // indirect
	github.com/mailru/easyjson v0.7.7 // indirect
	github.com/mattn/go-colorable v0.1.12 // indirect
	github.com/mattn/go-isatty v0.0.14 // indirect
	github.com/mattn/go-runewidth v0.0.13 // indirect
	github.com/matttproud/golang_protobuf_extensions v1.0.1 // indirect
	github.com/minio/blake2b-simd v0.0.0-20160723061019-3f5f724cb5b1 // indirect
	github.com/minio/sha256-simd v1.0.0 // indirect
	github.com/mitchellh/go-homedir v1.1.0 // indirect
	github.com/modern-go/concurrent v0.0.0-20180306012644-bacd9c7ef1dd // indirect
	github.com/modern-go/reflect2 v1.0.2 // indirect
	github.com/mr-tron/base58 v1.2.0 // indirect
	github.com/multiformats/go-base32 v0.0.4 // indirect
	github.com/multiformats/go-base36 v0.1.0 // indirect
	github.com/multiformats/go-multiaddr v0.4.1 // indirect
	github.com/multiformats/go-multibase v0.0.3 // indirect
	github.com/multiformats/go-multihash v0.1.0 // indirect
	github.com/multiformats/go-varint v0.0.6 // indirect
	github.com/oliamb/cutter v0.2.2 // indirect
	github.com/prometheus/client_model v0.2.0 // indirect
	github.com/prometheus/procfs v0.7.3 // indirect
	github.com/rivo/uniseg v0.2.0 // indirect
	github.com/robertkrimen/otto v0.0.0-20211024170158-b87d35c0b86f // indirect
	github.com/rogpeppe/go-internal v1.8.1 // indirect
	github.com/sirupsen/logrus v1.8.1 // indirect
	github.com/spacemonkeygo/spacelog v0.0.0-20180420211403-2296661a0572 // indirect
	github.com/spaolacci/murmur3 v1.1.0 // indirect
	github.com/spf13/pflag v1.0.5 // indirect
	github.com/tdewolff/parse/v2 v2.5.27 // indirect
	github.com/tomnomnom/linkheader v0.0.0-20180905144013-02ca5825eb80 // indirect
	github.com/wabarc/imgbb v1.0.0 // indirect
	github.com/wabarc/memento v0.0.0-20210703205719-adc2f8ab8bae // indirect
	github.com/whyrusleeping/tar-utils v0.0.0-20201201191210-20a61371de5b // indirect
	github.com/ybbus/httpretry v1.0.1 // indirect
	golang.org/x/sys v0.0.0-20220227234510-4e6760a101f9 // indirect
	golang.org/x/text v0.3.7 // indirect
	google.golang.org/protobuf v1.27.1 // indirect
	gopkg.in/sourcemap.v1 v1.0.5 // indirect
	gopkg.in/yaml.v2 v2.4.0 // indirect
	lukechampine.com/blake3 v1.1.7 // indirect
	mvdan.cc/xurls/v2 v2.4.0 // indirect
)
